{
    "version": "0.1.1",
    "summary": "Repository Monitoring",
    "repository": "https://github.com/CraZySacX/ellmak.git",
    "license": "BSD3",
    "source-directories": [
        "src"
    ],
    "exposed-modules": [],
    "dependencies": {
        "danyx23/elm-uuid": "2.0.2 <= v < 3.0.0",
        "elm-community/lazy-list": "1.0.0 <= v < 2.0.0",
        "elm-lang/core": "5.0.0 <= v < 6.0.0",
        "elm-lang/dom": "1.1.1 <= v < 2.0.0",
        "elm-lang/html": "2.0.0 <= v < 3.0.0",
        "elm-lang/http": "1.0.0 <= v < 2.0.0",
        "elm-lang/navigation": "2.0.1 <= v < 3.0.0",
        "elm-lang/websocket": "1.0.2 <= v < 2.0.0",
        "evancz/url-parser": "2.0.1 <= v < 3.0.0",
        "lukewestby/elm-http-builder": "4.0.0 <= v < 5.0.0",
        "mgold/elm-date-format": "1.1.7 <= v < 2.0.0",
        "mgold/elm-random-pcg": "4.0.2 <= v < 5.0.0",
        "rluiten/elm-date-extra": "8.1.2 <= v < 9.0.0",
        "simonh1000/elm-jwt": "4.0.3 <= v < 5.0.0",
        "truqu/elm-base64": "1.0.5 <= v < 2.0.0"
    },
    "elm-version": "0.18.0 <= v < 0.19.0"
}
